^C:\USERS\TWOONEOW\SOURCE\REPOS\PROJECTDZ\X64\DEBUG\HELPERS.OBJ|C:\USERS\TWOONEOW\SOURCE\REPOS\PROJECTDZ\X64\DEBUG\SOURCE.OBJ
C:\USERS\TWOONEOW\SOURCE\REPOS\PROJECTDZ\X64\DEBUG\PROJECTDZ.EXE
C:\USERS\TWOONEOW\SOURCE\REPOS\PROJECTDZ\X64\DEBUG\PROJECTDZ.ILK
C:\USERS\TWOONEOW\SOURCE\REPOS\PROJECTDZ\X64\DEBUG\PROJECTDZ.PDB
